\relax 
\@writefile{toc}{\contentsline {title}{Standard and weighted logics}{1}}
\@writefile{toc}{\authcount {1}}
\@writefile{toc}{\contentsline {author}{Bo\.{z}ena Wo\'{z}na-Szcze\'{s}niak \gdef IMCS, Jan D{\l }ugosz University. Al. Armii Krajowej 13/15, 42-200 Cz\c {e}stochowa, Poland.\unskip \ \ignorespaces  {\tt  b.wozna@ajd.czest.pl}{IMCS, Jan D{\l }ugosz University. Al. Armii Krajowej 13/15, 42-200 Cz\c {e}stochowa, Poland.\unskip \ \ignorespaces  {\tt  b.wozna@ajd.czest.pl}}}{1}}
\@writefile{toc}{\contentsline {section}{\numberline {1}The logic CTL$^*$KD}{1}}
\newlabel{logic}{{1}{1}}
\@writefile{toc}{\contentsline {subsection}{\numberline {1.1}Syntax of CTL$^*$KD.}{1}}
\@writefile{toc}{\contentsline {subsection}{\numberline {1.2}Subset of CTL$^*$KD}{1}}
\@writefile{toc}{\contentsline {section}{\numberline {2}The logic WCTL$^*$KD}{3}}
\newlabel{logic}{{2}{3}}
\@writefile{toc}{\contentsline {subsection}{\numberline {2.1}Syntax of WCTL$^*$KD.}{4}}
\@writefile{toc}{\contentsline {subsection}{\numberline {2.2}Subset of WCTL$^*$KD}{4}}
